Working with manydata • manydata
…
This specific variable name allows the comparison across the datasets which have different sources but same informations. It enables to point out the recurrence, difference or absence of observations between the datasets and extract more robust data when researching on a particular governance domain.

Loading data

Let us say that we wish to download the {manystates} package, which offers a set of datasets related to state actors in global governance. We can download and install the latest release version of the {manystates} package using the same function as before, only specifying which package we want to ‘get’, ‘get_packages(“manystates”)’.

For now, let’s work with the Roman Emperors database included in manydata. We can get a quick summary of the datasets included in this package with the following command:

data(package = "manydata")
data(emperors, package = "manydata")
emperors

#> $wikipedia
#> # A tibble: 68 × 15
#>    ID     Beg    End   FullName  Birth Death CityBirth ProvinceBirth Rise  Cause
#>    <chr>  <mess> <mes> <chr>     <chr> <chr> <chr>     <chr>         <chr> <chr>
#>  1 Augus… -XX26… 0014… IMPERATO… 0062… 0014… Rome      Italia        Birt… Assa…
#>  2 Tiber… 0014-… 0037… TIBERIVS… 0041… 0037… Rome      Italia        Birt… Assa…
#>  3 Calig… 0037-… 0041… GAIVS IV… 0012… 0041… Antitum   Italia        Birt… Assa…
#>  4 Claud… 0041-… 0054… TIBERIVS… 0009… 0054… Lugdunum  Gallia Lugdu… Birt… Assa…
#>  5 Nero   0054-… 0068… NERO CLA… 0037… 0068… Antitum   Italia        Birt… Suic…
#>  6 Galba  0068-… 0069… SERVIVS … 0002… 0069… Terracina Italia        Seiz… Assa…
#>  7 Otho   0069-… 0069… MARCVS S… 0032… 0069… Terentin… Italia        Appo… Suic…
#>  8 Vitel… 0069-… 0069… AVLVS VI… 0015… 0069… Rome      Italia        Seiz… Assa…
#>  9 Vespa… 0069-… 0079… TITVS FL… 0009… 0079… Falacrine Italia        Seiz… Natu…
#> 10 Titus  0079-… 0081… TITVS FL… 0039… 0081… Rome      Italia        Birt… Natu…
#> # … with 58 more rows, and 5 more variables: Killer <chr>, Dynasty <chr>,
#> #   Era <chr>, Notes <chr>, Verif <chr>
#> 
#> $UNRV
#> # A tibble: 99 × 7
#>    ID               Beg       End       Birth Death FullName          Dynasty   
#>    <chr>            <messydt> <messydt> <chr> <chr> <chr>             <chr>     
#>  1 Augustus         -XX27     -XX14     63 BC 14    Gaius Julius Cae… Julio-Cla…
#>  2 Tiberius         -XX14     0037      42 BC 37    Tiberius Claudiu… Julio-Cla…
#>  3 Gaius (Caligula) 0037      0041      12    14    Gaius Caesar Ger… Julio-Cla…
#>  4 Claudius         0041      0054      10 BC 41    Tiberius Claudiu… Julio-Cla…
#>  5 Nero             0054      0068      37    68    Claudius Nero Ca… Julio-Cla…
#>  6 Galba            0068      0069      3 BC  69    Servius Sulpiciu… Year of t…
#>  7 Otho             0069      0069      32    69    Marcus Salvius O… Year of t…
#>  8 Vitellius        0069      0069      15    69    Aulus Vitellius … Year of t…
#>  9 Vespasian        0069      0079      9     79    Titus Flavius Ve… Year of t…
#> 10 Titus            0079      0081      39    79    Titus Flavius Ve… Flavian   
#> # … with 89 more rows
#> 
#> $britannica
#> # A tibble: 87 × 3
#>    ID              Beg       End      
#>    <chr>           <messydt> <messydt>
#>  1 Augustus        -XX31     0014     
#>  2 Tiberius        0014      0037     
#>  3 Caligula        0037      0041     
#>  4 Claudius        0041      0054     
#>  5 Nero            0054      0068     
#>  6 Galba           0068      0069     
#>  7 Otho            0069-01   0069-04  
#>  8 Aulus Vitellius 0069-07   0069-12  
#>  9 Vespasian       0069      0079     
#> 10 Titus           0079      0081     
#> # … with 77 more rows
…
Consolidate data

Now that we have compared the data and looked at some of the different inferences drawn using different datasets, let us examine how to select and collapse databases. manydata contains the consolidate() function which facilitates collapsing multiple datasets into a dataframe for analysis.

consolidate() collapses a set of datasets, or a database, from a ‘many’ package into a single dataset with some combination of the rows and columns. The function includes separate arguments for the rows and columns, as well as for how to resolve conflicts in observations across datasets. The key argument indicates the column to collapse datasets by. This provides users with considerable flexibility in how they combine data. For example, users may wish to see units and variables coded in any dataset, or units and variables coded in every dataset,

consolidate(emperors, rows = "any", cols = "any", resolve = "coalesce", key = "ID")

#> # A tibble: 137 × 15
#>    ID        CityBirth  ProvinceBirth Rise  Cause Killer Era   Notes Verif Birth
#>    <chr>     <chr>      <chr>         <chr> <chr> <chr>  <chr> <chr> <chr> <chr>
#>  1 Augustus  Rome       Italia        Birt… Assa… Wife   Prin… birt… Redd… 0062…
#>  2 Tiberius  Rome       Italia        Birt… Assa… Other… Prin… birt… Redd… 0041…
#>  3 Caligula  Antitum    Italia        Birt… Assa… Senate Prin… assa… Redd… 0012…
#>  4 Claudius  Lugdunum   Gallia Lugdu… Birt… Assa… Wife   Prin… birt… Redd… 0009…
#>  5 Nero      Antitum    Italia        Birt… Suic… Senate Prin… <NA>  Redd… 0037…
#>  6 Galba     Terracina  Italia        Seiz… Assa… Other… Prin… birt… Redd… 0002…
#>  7 Otho      Terentinum Italia        Appo… Suic… Other… Prin… <NA>  <NA>  0032…
#>  8 Vitellius Rome       Italia        Seiz… Assa… Other… Prin… <NA>  <NA>  0015…
#>  9 Vespasian Falacrine  Italia        Seiz… Natu… Disea… Prin… <NA>  <NA>  0009…
#> 10 Titus     Rome       Italia        Birt… Natu… Disea… Prin… <NA>  <NA>  0039…
#> # … with 127 more rows, and 5 more variables: Death <chr>, FullName <chr>,
#> #   Dynasty <chr>, Beg <messydt>, End <messydt>

consolidate(emperors, rows = "every", cols = "every", resolve = "coalesce", key = "ID")

#> # A tibble: 41 × 3
#>    ID        Beg         End       
#>    <chr>     <messydt>   <messydt> 
#>  1 Augustus  -XX26-01-16 0014-08-19
#>  2 Tiberius  0014-09-18  0037-03-16
#>  3 Claudius  0041-01-25  0054-10-13
#>  4 Nero      0054-10-13  0068-06-09
#>  5 Galba     0068-06-08  0069-01-15
#>  6 Otho      0069-01-15  0069-04-16
#>  7 Vespasian 0069-12-21  0079-06-24
#>  8 Titus     0079-06-24  0081-09-13
#>  9 Domitian  0081-09-14  0096-09-18
#> 10 Nerva     0096-09-18  0098-01-27
#> # … with 31 more rows
…
coalesce: the first non-NA value

max: the largest value

min: the smallest value

mean: the average value

median: the median value

random: a random value

consolidate(emperors, "any", "every", resolve = "max", key = "ID")

#> # A tibble: 137 × 3
#>    ID        Beg        End       
#>    <chr>     <chr>      <chr>     
#>  1 Augustus  -XX31      0014-12-31
#>  2 Tiberius  0014-12-31 0037-12-31
#>  3 Caligula  0037-12-31 0041-12-31
#>  4 Claudius  0041-12-31 0054-12-31
#>  5 Nero      0054-12-31 0068-12-31
#>  6 Galba     0068-12-31 0069-12-31
#>  7 Otho      0069-12-31 0069-12-31
#>  8 Vitellius 0069-12-31 0069-12-31
#>  9 Vespasian 0069-12-31 0079-12-31
#> 10 Titus     0079-12-31 0081-12-31
#> # … with 127 more rows

consolidate(emperors, "every", "any", resolve = "min", key = "ID")

#> # A tibble: 41 × 15
#>    ID        CityBirth  ProvinceBirth Rise  Cause Killer Era   Notes Verif Birth
#>    <chr>     <chr>      <chr>         <chr> <chr> <chr>  <chr> <chr> <chr> <chr>
#>  1 Augustus  Rome       Italia        Birt… Assa… Wife   Prin… birt… Redd… 0062…
#>  2 Tiberius  Rome       Italia        Birt… Assa… Other… Prin… birt… Redd… 0041…
#>  3 Claudius  Lugdunum   Gallia Lugdu… Birt… Assa… Wife   Prin… birt… Redd… 0009…
#>  4 Nero      Antitum    Italia        Birt… Suic… Senate Prin… <NA>  Redd… 0037…
#>  5 Galba     Terracina  Italia        Seiz… Assa… Other… Prin… birt… Redd… 0002…
#>  6 Otho      Terentinum Italia        Appo… Suic… Other… Prin… <NA>  <NA>  0032…
#>  7 Vespasian Falacrine  Italia        Seiz… Natu… Disea… Prin… <NA>  <NA>  0009…
#>  8 Titus     Rome       Italia        Birt… Natu… Disea… Prin… <NA>  <NA>  0039…
#>  9 Domitian  Rome       Italia        Birt… Assa… Court… Prin… <NA>  <NA>  0051…
#> 10 Nerva     Narni      Italia        Appo… Natu… Disea… Prin… <NA>  <NA>  0030…
#> # … with 31 more rows, and 5 more variables: Death <chr>, FullName <chr>,
#> #   Dynasty <chr>, Beg <chr>, End <chr>

consolidate(emperors, "every", "every", resolve = "mean", key = "ID")

#> # A tibble: 41 × 3
#>    ID        Beg         End       
#>    <chr>     <chr>       <chr>     
#>  1 Augustus  -XX26-01-16 0014-08-19
#>  2 Tiberius  0014-09-18  0037-03-16
#>  3 Claudius  0041-01-25  0054-10-13
#>  4 Nero      0054-10-13  0068-06-09
#>  5 Galba     0068-06-08  0069-01-15
#>  6 Otho      0069-01-15  0069-04-16
#>  7 Vespasian 0069-12-21  0079-06-24
#>  8 Titus     0079-06-24  0081-09-13
#>  9 Domitian  0081-09-14  0096-09-18
#> 10 Nerva     0096-09-18  0098-01-27
#> # … with 31 more rows

consolidate(emperors, "any", "any", resolve = "median", key = "ID")

#> # A tibble: 137 × 15
#>    ID        CityBirth  ProvinceBirth Rise  Cause Killer Era   Notes Verif Birth
#>    <chr>     <chr>      <chr>         <chr> <chr> <chr>  <chr> <chr> <chr> <chr>
#>  1 Augustus  Rome       Italia        Birt… Assa… Wife   Prin… birt… Redd… 0062…
#>  2 Tiberius  Rome       Italia        Birt… Assa… Other… Prin… birt… Redd… 0041…
#>  3 Caligula  Antitum    Italia        Birt… Assa… Senate Prin… assa… Redd… 0012…
#>  4 Claudius  Lugdunum   Gallia Lugdu… Birt… Assa… Wife   Prin… birt… Redd… 0009…
#>  5 Nero      Antitum    Italia        Birt… Suic… Senate Prin… <NA>  Redd… 0037…
#>  6 Galba     Terracina  Italia        Seiz… Assa… Other… Prin… birt… Redd… 0002…
#>  7 Otho      Terentinum Italia        Appo… Suic… Other… Prin… <NA>  <NA>  0032…
#>  8 Vitellius Rome       Italia        Seiz… Assa… Other… Prin… <NA>  <NA>  0015…
#>  9 Vespasian Falacrine  Italia        Seiz… Natu… Disea… Prin… <NA>  <NA>  0009…
#> 10 Titus     Rome       Italia        Birt… Natu… Disea… Prin… <NA>  <NA>  0039…
#> # … with 127 more rows, and 5 more variables: Death <chr>, FullName <chr>,
#> #   Dynasty <chr>, Beg <chr>, End <chr>

consolidate(emperors, "every", "every", resolve = "random", key = "ID")

#> # A tibble: 41 × 3
#>    ID        Beg        End       
#>    <chr>     <chr>      <chr>     
#>  1 Augustus  -XX31      -XX14     
#>  2 Tiberius  0014-09-18 0037-03-16
#>  3 Claudius  0041-01-25 0054-04-21
#>  4 Nero      0054-01-20 0068-06-09
#>  5 Galba     0068-06-08 0069-07-31
#>  6 Otho      0069-07-28 0069-04-10
#>  7 Vespasian 0069-12-21 0079-06-24
#>  8 Titus     0079-06-25 0081-05-08
#>  9 Domitian  0081-06-24 0096-09-18
#> 10 Nerva     0096-09-18 0098-02-26
#> # … with 31 more rows

Users can even specify how conflictis for different variables should be ‘resolved’ differently.

consolidate(emperors, "every", "every", resolve = c(Beg = "min", End = "max"), key = "ID")

#> # A tibble: 41 × 3
#>    ID        Beg         End       
#>    <chr>     <chr>       <chr>     
#>  1 Augustus  -XX26-01-16 0014-12-31
#>  2 Tiberius  -XX14       0037-12-31
#>  3 Claudius  0041-01-01  0054-12-31
#>  4 Nero      0054-01-01  0068-12-31
#>  5 Galba     0068-01-01  0069-12-31
#>  6 Otho      0069-01-01  0069-12-31
#>  7 Vespasian 0069-01-01  0079-12-31
#>  8 Titus     0079-01-01  0081-12-31
#>  9 Domitian  0081-01-01  0096-12-31
#> 10 Nerva     0096-01-01  0098-12-31
#> # … with 31 more rows
…
